{
  "type": "service_account",
  "project_id": "tracker-india",
  "private_key_id": "0ed1adf68d22198c9f23f3ccd32abaaa4d74d087",
  "private_key": "-----BEGIN PRIVATE KEY-----\nMIIEvgIBADANBgkqhkiG9w0BAQEFAASCBKgwggSkAgEAAoIBAQDobOuhL8Lt6f59\n901tGCc7UrV7YLaulrQGHwvFztFSgEm69VW21UxXxGOcvGgvrn6emmvfN/ii+LF/\nP/qRu2eVpCiR6YhNCbp/rOPa8UFtc6wl3Nb1/APfa1makWdXL+BM3MHfndgRlT3k\nN1zMsMWHWQFHSy2DDOz170FCSf2+v+exmr6m4c3qtdnrraJDddpvz2OOUTdG7ti8\nvQFNmghTCkH1bsGGCyNcolPOlkNA3OBSU0SY4jpJpiseY/apZwH5qf5OyMvD2iWl\n6fvMe0Ogsn/VKfjy/coRBFi62GP8vsXFOiSUVg9ikmU5ZsnXcdZEPBXaECAKCnqL\n1i5PUp3HAgMBAAECggEAU2RRHqIeVHJyRwvmEdBqsxQ33S6UHQwhR1j4Rl6wJ+Oz\nkIrZ2CGrpInoG6JV11XKRGmvboWMhhyowrlX09XjkoM1szSRHOLysUB8+F87VGP+\nTg9waQ2k7hJ8McMdyuB4n9tNDEh778MWU72xZBfAp5E9rjDBAZYvpwXS6k/V5QwS\nrqoMkbX/uR0KEJEuUhLBtRRMc/zoQuTSYN68+Mp47YZZqKnAkqFZF6eob4PSIaa0\nuMwF5MDgzAjAV+mVrF/wwhWu7mAOI75o62CVgd7dhluOqImT0rpozKiZRCAb6Pyo\nAZijRplHw6pN0fHJQ9hcg5myoWl7hl2VdsiQBCySsQKBgQD2b1SXCyraIzfNOiMr\nClkD+iyA3ZJM3VmvqKgSqdu50dJzZRwom1nB/9IZ5QNBmJUBbhlkO7A1xXd+DtpP\nk+1Q7KtJC2TL92R8entPL/Eswzbm04p/v+WpsA5jlw0H1xvy0tKOALcOF0sM8p5k\nsxpFp07xoakkYZROR4cN2V04EwKBgQDxcmMfcg3nLn+EdMyE58u7InVh5H0GJ66U\nNg8p6g77vaZBPN5JnFmW6pPSzGpsUD0AUgaMBhyYvt5vClWd37J3b4/ua4gYZ+DZ\nKZZAD9R/oS2XWbgTDZ5C1fXfDYau/HRpiPHjiQLQd0MPl1+l0MbIrqBie42I+YPe\n67ADeKFh/QKBgQC9COl6c7aLXjiP1OjlOyrNQjqhH1X6YFFLzbQfnOxPvgQRQJ45\nB/HyPqqL8oBs8P5b+ni/yomAtdjTedE8+dwxF1rMzVCkpUEPu2Sbecsm6xhSODMl\ni65AXCyteFEmknt96Ppas3G3/WY0qGeYF0sv4wdLkxaMMc3xvix7EyHOwQKBgHR3\nZgMcJEK49j/xi1os6eR6Cb9P1VMrvxW1QflI8zNR1ymu79b4OWsH+oh7nHZk+hf2\neTwAErlHkMplZMlDx7W/NeGfM0X6jcaTPevm9u0d1X0lhRqDviylQvX2c1pjYtAp\ng+zrAVWHwex6a2Pz4n+ZZLo8uRgyq/7TF9OE0+wNAoGBAOyaHsr23xWQMW/x5e9q\ni2Vz9/boMxPMXtwUngbJgSwvYcA5a2UpvTinTj53tSBlMzjdw6ZBdY4jB77+fHmo\nW8cVoLSPOB31OkUXtUhRlvtiBLx22x/HM79/btOtiYbYrU89Phge81Xp4k3k9icg\ngBriRvef2LhpoENN34G2cFUe\n-----END PRIVATE KEY-----\n",
  "client_email": "firebase-adminsdk-wuyvz@tracker-india.iam.gserviceaccount.com",
  "client_id": "100474397339109903903",
  "auth_uri": "https://accounts.google.com/o/oauth2/auth",
  "token_uri": "https://oauth2.googleapis.com/token",
  "auth_provider_x509_cert_url": "https://www.googleapis.com/oauth2/v1/certs",
  "client_x509_cert_url": "https://www.googleapis.com/robot/v1/metadata/x509/firebase-adminsdk-wuyvz%40tracker-india.iam.gserviceaccount.com"
}
